{
"request": {
	"user_name": "Pauline Kael",
	"ratings": [{
    "item_id": 31,
    "rating": 1.1
  },
  {
    "item_id": 1029,
    "rating": 0
  },
  {
    "item_id": 1061,
    "rating": 0.8
  },
  {
    "item_id": 1129,
    "rating": 2.5
  },
  {
    "item_id": 1172,
    "rating": 1.4
  },
  {
    "item_id": 1263,
    "rating": 3.8
  },
  {
    "item_id": 1287,
    "rating": 1.5
  },
  {
    "item_id": 1293,
    "rating": 3
  },
  {
    "item_id": 1339,
    "rating": 1.7
  },
  {
    "item_id": 1343,
    "rating": 4
  },
  {
    "item_id": 1371,
    "rating": 0.8
  },
  {
    "item_id": 1405,
    "rating": 3.3
  },
  {
    "item_id": 1953,
    "rating": 3
  },
  {
    "item_id": 2105,
    "rating": 0.9
  },
  {
    "item_id": 2150,
    "rating": 0.5
  },
  {
    "item_id": 2193,
    "rating": 1.7
  },
  {
    "item_id": 2294,
    "rating": 0.7
  },
  {
    "item_id": 2455,
    "rating": 0.3
  },
  {
    "item_id": 2968,
    "rating": 0.4
  },
  {
    "item_id": 3671,
    "rating": 3.6
  }]
}
}