{
"request": {
	"user_name": "Andrew Sarris",
	"ratings": [{
    "item_id": 405,
    "rating": 4.3
  },
  {
    "item_id": 410,
    "rating": 4.1
  },
  {
    "item_id": 454,
    "rating": 4.5
  },
  {
    "item_id": 457,
    "rating": 4
  },
  {
    "item_id": 468,
    "rating": 4.7
  },
  {
    "item_id": 474,
    "rating": 4.6
  },
  {
    "item_id": 480,
    "rating": 4.5
  },
  {
    "item_id": 485,
    "rating": 4.9
  },
  {
    "item_id": 497,
    "rating": 4.2
  },
  {
    "item_id": 500,
    "rating": 4.6
  },
  {
    "item_id": 508,
    "rating": 4.3
  },
  {
    "item_id": 509,
    "rating": 4.4
  },
  {
    "item_id": 515,
    "rating": 4.6
  },
  {
    "item_id": 527,
    "rating": 4.5
  },
  {
    "item_id": 537,
    "rating": 4.4
  },
  {
    "item_id": 539,
    "rating": 4.7
  },
  {
    "item_id": 550,
    "rating": 4.6
  },
  {
    "item_id": 551,
    "rating": 4
  },
  {
    "item_id": 552,
    "rating": 4.3
  },
  {
    "item_id": 585,
    "rating": 4.9
  }]
}
}